%YAML 1.1
%TAG !u! tag:unity3d.com,2011:
--- !u!114 &11400000
MonoBehaviour:
  m_ObjectHideFlags: 0
  m_PrefabParentObject: {fileID: 0}
  m_PrefabInternal: {fileID: 0}
  m_GameObject: {fileID: 0}
  m_Enabled: 1
  m_EditorHideFlags: 0
  m_Script: {fileID: 11500000, guid: b106bb8cb592d4544a1b9d6d9bd4487d, type: 3}
  m_Name: card_Swarm
  m_EditorClassIdentifier: 
  Name: Swarm
  Image: {fileID: 21300000, guid: 97ee1b1052ab2e641b66d8896fa231d1, type: 3}
  Material: {fileID: 2100000, guid: 4a0e74ad6ad0cfe439caaeb40a25062d, type: 2}
