%YAML 1.1
%TAG !u! tag:unity3d.com,2011:
--- !u!114 &11400000
MonoBehaviour:
  m_ObjectHideFlags: 0
  m_PrefabParentObject: {fileID: 0}
  m_PrefabInternal: {fileID: 0}
  m_GameObject: {fileID: 0}
  m_Enabled: 1
  m_EditorHideFlags: 0
  m_Script: {fileID: 11500000, guid: b106bb8cb592d4544a1b9d6d9bd4487d, type: 3}
  m_Name: card_Xmas_Luci
  m_EditorClassIdentifier: 
  Name: Xmas Luci
  Image: {fileID: 21300000, guid: ad3ca01c8d1d001489cb72945617ff8e, type: 3}
  Material: {fileID: 2100000, guid: f9469f09830720c4d964751ad70a23e3, type: 2}
